Quarto with RStudio - Assessing New Zealand Tertiary Students’ Financial Stress using Students’ Financial Stress Scale Aotearoa
…
df <- df[-c(1), ]
df

# A tibble: 60 × 72
   StartDate      EndDate Status IPAdd…¹ Progr…² Durat…³ Finis…⁴ Recor…⁵ Respo…⁶
   <chr>          <chr>   <chr>  <chr>   <chr>   <chr>   <chr>   <chr>   <chr>  
 1 43158.3502430… 43158.… 0      47.72.… 100     660     1       43158.… R_1hZj…
 2 43158.3684375… 43158.… 0      27.110… 100     1563    1       43158.… R_1rCF…
 3 43158.4401736… 43158.… 0      210.54… 100     471     1       43158.… R_2ASh…
 4 43158.4591435… 43158.… 0      115.18… 100     411     1       43158.… R_6KGx…
 5 43158.5318171… 43158.… 0      202.36… 100     419     1       43158.… R_1nMw…
 6 43158.5946759… 43158.… 0      202.36… 100     421     1       43158.… R_1ima…
 7 43158.7341550… 43158.… 0      202.36… 100     393     1       43158.… R_3NWW…
 8 43158.8942592… 43158.… 0      111.69… 100     417     1       43158.… R_3e8E…
 9 43158.9168634… 43158.… 0      150.10… 100     864     1       43158.… R_324x…
10 43158.9468171… 43158.… 0      118.92… 100     673     1       43158.… R_2zZL…
# … with 50 more rows, 63 more variables: RecipientLastName <chr>,
#   RecipientFirstName <chr>, RecipientEmail <chr>, ExternalReference <chr>,
#   LocationLatitude <chr>, LocationLongitude <chr>, DistributionChannel <chr>,
#   UserLanguage <chr>, CONSENT_1 <chr>, CONSENT_2 <chr>, CONSENT_3 <chr>,
#   CONSENT_4 <chr>, CONSENT_5 <chr>, CONSENT_6 <chr>, CONSENT_7 <chr>,
#   CONSENT_8 <chr>, `TIM_First Click...26` <chr>, `TIM_Last Click...27` <chr>,
#   `TIM_Page Submit...28` <chr>, `TIM_Click Count...29` <chr>, …
…
Attaching package: 'dplyr'

The following objects are masked from 'package:stats':

    filter, lag

The following objects are masked from 'package:base':

    intersect, setdiff, setequal, union

df <- df %>% select(`SFSS-A_1`, `SFSS-A_2`, `SFSS-A_3`, `SFSS-A_4`, `SFSS-A_5`, `SFSS-A_6`, `SFSS-A_7`, `SFSS-A_8`, `SFSS-A_9`, `SFSS-A_10`, `SFSS-A_11`, `SFSS-A_12`, `SFSS-A_13`, `SFSS-A_14`, `SFSS-A_15`, `SFSS-A_16`, `SFSS-A_17`, `SFSS-A_18`, `SFSS-A_19`, `SFSS-A_20`, `SFSS-A_21`, `SFSS-A_22`, `Scale`, `Age`, `Gender`, `Study`, `Fulltime`, `ETH`, `ETH_8_TEXT`, `EMPL`, `ALLOW`, `FIN-SUP`, `FIN-SUP_3_TEXT`, `DEBT`)
df

# A tibble: 60 × 34
   `SFSS-A_1` `SFSS-A_2` SFSS-…¹ SFSS-…² SFSS-…³ SFSS-…⁴ SFSS-…⁵ SFSS-…⁶ SFSS-…⁷
   <chr>      <chr>      <chr>   <chr>   <chr>   <chr>   <chr>   <chr>   <chr>  
 1 7          7          5       2       5       5       2       7       4      
 2 5          5          6       3       5       4       5       5       5      
 3 6          5          5       4       1       2       2       2       1      
 4 6          7          3       5       3       2       2       5       3      
 5 6          5          6       6       2       4       6       3       2      
 6 4          3          1       7       1       1       1       1       7      
 7 6          4          1       5       3       2       1       1       2      
 8 3          2          6       7       5       3       1       1       5      
 9 5          7          7       2       3       5       7       6       2      
10 5          3          6       2       4       4       5       5       3      
# … with 50 more rows, 25 more variables: `SFSS-A_10` <chr>, `SFSS-A_11` <chr>,
#   `SFSS-A_12` <chr>, `SFSS-A_13` <chr>, `SFSS-A_14` <chr>, `SFSS-A_15` <chr>,
#   `SFSS-A_16` <chr>, `SFSS-A_17` <chr>, `SFSS-A_18` <chr>, `SFSS-A_19` <chr>,
#   `SFSS-A_20` <chr>, `SFSS-A_21` <chr>, `SFSS-A_22` <chr>, Scale <chr>,
#   Age <chr>, Gender <chr>, Study <chr>, Fulltime <chr>, ETH <chr>,
#   ETH_8_TEXT <chr>, EMPL <chr>, ALLOW <chr>, `FIN-SUP` <chr>,
#   `FIN-SUP_3_TEXT` <chr>, DEBT <chr>, and abbreviated variable names …
…
